ST558 HW4: Advanced Functions, API Calls
…
  query <- list(q = topic, apiKey = api_key, from = start, sortBy = "popularity", ...)
  
  news_api_return <- GET(url = "https://newsapi.org/", 
                         path = "v2/everything", 
                         query = query
  )
  
  parsed_result <- fromJSON(rawToChar(news_api_return$content))
  
  parsed_result$articles |> tibble::as_tibble()
}

getNews(topic = "kendrick lamar euphoria", api_key = api_key, start = '2024-06-01', language = 'en')

# A tibble: 84 × 8
   source$id $name author title description url   urlToImage publishedAt content
   <chr>     <chr> <chr>  <chr> <chr>       <chr> <chr>      <chr>       <chr>  
 1 <NA>      Pitc… "Matt… Kend… The show t… http… https://m… 2024-06-05… "Kendr…
 2 <NA>      The … "Emma… Kend… A decade f… http… https://i… 2024-06-20… "A dec…
 3 bleacher… Blea… "Scot… Vide… This might… http… https://m… 2024-06-20… "Noel …
 4 <NA>      Ster… "Tom … Kend… What do yo… http… https://s… 2024-06-20… "What …
 5 <NA>      Roll… "Mank… Dr. … “We done l… http… https://w… 2024-06-20… "Kendr…
 6 <NA>      Roll… "Krys… Here… Dr. Dre an… http… https://w… 2024-06-20… "In hi…
 7 <NA>      NPR   "Shel… Kend… Lamar's bl… http… https://n… 2024-06-20… "When …
 8 <NA>      Forb… "Cono… Drak… The Drake … http… https://i… 2024-06-06… "Drake…
 9 <NA>      Forb… "Laur… Kend… Kendrick L… http… https://i… 2024-06-20… "Kendr…
10 <NA>      Forb… "Cono… Here… Lamar doub… http… https://i… 2024-06-20… "Kendr…
# ℹ 74 more rows

getNews(topic = "san francisco 49ers", api_key = api_key, start = '2024-06-01')

# A tibble: 100 × 8
   source$id $name author title description url   urlToImage publishedAt content
   <chr>     <chr> <chr>  <chr> <chr>       <chr> <chr>      <chr>       <chr>  
 1 <NA>      NPR   Ayana… Larr… "The annou… http… https://n… 2024-06-04… "Legen…
 2 <NA>      Read… Owen … Madd… "Christian… http… https://r… 2024-06-11… "Chris…
 3 espn      ESPN  NFL N… From… "Our NFL N… http… https://a… 2024-06-03… "The 2…
 4 espn      ESPN  <NA>   Sour… "Christian… http… https://a… 2024-06-04… "Reign…
 5 espn      ESPN  Fanta… Mock… "Our lates… http… https://a… 2024-06-14… "Jun 1…
 6 abc-news  ABC … SCHUY… Larr… "Larry All… http… https://i… 2024-06-03… "DALLA…
 7 <NA>      Game… Mark … Madd… "The cover… http… https://w… 2024-06-11… "The c…
 8 <NA>      HYPE… info@… 49er… "EA Sports… http… https://i… 2024-06-11… "EA Sp…
 9 <NA>      HYPE… info@… Take… "Just last… http… https://i… 2024-06-14… "Just …
10 bleacher… Blea… Adam … 49er… "The start… http… https://m… 2024-06-05… "Perry…
# ℹ 90 more rows
…
